{
  "name": "expense-tracker-frontend-e2e",
  "$schema": "../../node_modules/nx/schemas/project-schema.json",
  "sourceRoot": "apps/expense-tracker-frontend-e2e/src",
  "projectType": "application",
  "targets": {
    "e2e": {
      "executor": "@nx/cypress:cypress",
      "options": {
        "cypressConfig": "apps/expense-tracker-frontend-e2e/cypress.config.ts",
        "devServerTarget": "expense-tracker-frontend:serve:development",
        "testingType": "e2e"
      },
      "configurations": {
        "production": {
          "devServerTarget": "expense-tracker-frontend:serve:production"
        },
        "ci": {
          "devServerTarget": "expense-tracker-frontend:serve-static"
        }
      }
    },
    "lint": {
      "executor": "@nx/linter:eslint",
      "outputs": ["{options.outputFile}"],
      "options": {
        "lintFilePatterns": [
          "apps/expense-tracker-frontend-e2e/**/*.{js,ts}"
        ]
      }
    },
    "version": {
      "executor": "@jscutlery/semver:version",
      "options": {
        "preset": "conventional"
      }
    }
  },
  "tags": [],
  "implicitDependencies": ["expense-tracker-frontend"]
}
